name="Star Trek New Horizons"
path="mod/newhorizons"
replace_path="gfx/loadingscreens"

tags={
	"Overhaul"
	"Sound"
	"Ships"
	"Star Trek"
	"music"
	"Borg"
	"Klingons"
	"Romulans"
	"8472"
	"Cardassian"
	"Vulkan"
	"Loading Screen"
	"Graphics"
	"Total Conversion"
}
picture="thumb.jpg"
remote_file_id="688086068"
supported_version="1.2.0"
